{
	"ID": "Order-1401",
	"User ID": "111",
	"Transaction Date": "05/12/2023",
	"Status": "Shipped",
	"Total": 2000
	
}

{
	"ID": "Order-1402",
	"User ID": "222",
	"Transaction Date": "05/13/2023",
	"Status": "Delivered",
	"Total": 2000
	
}