{
	"_id": "26418",
	"firstName": "John",
	"lastName": "Smith",
	"email": "johnsmith@mail.com",
	"password": "john123",
	"isAdmin": false,
	"mobileNumber": "09191234567",
	"enrollments": ["78106","25638"]
}

{
	"_id": "58796",
	"firstName": "Jane",
	"lastName": "Doe",
	"email": "janed@mail.com",
	"password": "jane123",
	"isAdmin": true,
	"mobileNumber": "09994569878",
	"enrollments": []
}

